{
  "page": 1,
  "total_results": 2554,
  "total_pages": 128,
  "results": [
    {
      "original_name": "ナルト 疾風伝",
      "genre_ids": [
        16,
        35,
        18
      ],
      "name": "Naruto Shippūden",
      "popularity": 125.932,
      "origin_country": [
        "JP"
      ],
      "vote_count": 262,
      "first_air_date": "2007-02-15",
      "backdrop_path": "/c14vjmndzL9tBdooGsMznMFrFLo.jpg",
      "original_language": "ja",
      "id": 31910,
      "vote_average": 7.6,
      "overview": "Naruto Shippuuden is the continuation of the original animated TV series Naruto.The story revolves around an older and slightly more matured Uzumaki Naruto and his quest to save his friend Uchiha Sasuke from the grips of the snake-like Shinobi, Orochimaru. After 2 and a half years Naruto finally returns to his village of Konoha, and sets about putting his ambitions to work, though it will not be easy, as He has amassed a few (more dangerous) enemies, in the likes of the shinobi organization; Akatsuki.",
      "poster_path": "/zAYRe2bJxpWTVrwwmBc00VFkAf4.jpg"
    },
    {
      "original_name": "食戟のソーマ",
      "genre_ids": [
        16,
        35
      ],
      "name": "Food Wars!: Shokugeki no Soma",
      "popularity": 124.605,
      "origin_country": [
        "JP"
      ],
      "vote_count": 49,
      "first_air_date": "2015-04-04",
      "backdrop_path": "/twNTbuhcpBg179DJUPUbhaQdglo.jpg",
      "original_language": "ja",
      "id": 62273,
      "vote_average": 8.2,
      "overview": "Yukihira Souma's dream is to become a full-time chef in his father's restaurant and surpass his father's culinary skill. But just as Yukihira graduates from middle schools his father, Yukihira Jouichirou, closes down the restaurant to cook in Europe. Although downtrodden, Souma's fighting spirit is rekindled by a challenge from Jouichirou which is to survive in an elite culinary school where only 10% of the students graduate. Can Souma survive?",
      "poster_path": "/oSK6MoEScP9V4XF0cPvJ0a66urY.jpg"
    },
    {
      "original_name": "七つの大罪",
      "genre_ids": [
        16,
        10759,
        10765
      ],
      "name": "The Seven Deadly Sins",
      "popularity": 144.297,
      "origin_country": [
        "JP"
      ],
      "vote_count": 130,
      "first_air_date": "2014-10-05",
      "backdrop_path": "/n5Ty1KJIRNCXlDHDjcPpUgp57tr.jpg",
      "original_language": "ja",
      "id": 62104,
      "vote_average": 7.8,
      "overview": "The “Seven Deadly Sins”—a group of evil knights who conspired to overthrow the kingdom of Britannia—were said to have been eradicated by the Holy Knights, although some claim that they still live. Ten years later, the Holy Knights have staged a Coup d'état and assassinated the king, becoming the new, tyrannical rulers of the kingdom. Elizabeth, the king's only daughter, sets out on a journey to find the “Seven Deadly Sins,” and to enlist their help in taking back the kingdom.",
      "poster_path": "/gxTojpKEOtue85EEFlozwRbDXwJ.jpg"
    },
    {
      "original_name": "ハンターｘハンター",
      "genre_ids": [
        16,
        35,
        10759
      ],
      "name": "Hunter x Hunter",
      "popularity": 124.625,
      "origin_country": [
        "JP"
      ],
      "vote_count": 147,
      "first_air_date": "2011-10-02",
      "backdrop_path": "/ye4oayd3csx8psElvvQPdO2fgdD.jpg",
      "original_language": "ja",
      "id": 46298,
      "vote_average": 8.4,
      "overview": "Twelve-year-old Gon Freecss one day discovers that the father he had always been told was dead was alive and well. His Father, Ging, is a Hunter—a member of society's elite with a license to go anywhere or do almost anything. Gon, determined to follow in his father's footsteps, decides to take the Hunter Examination and eventually find his father to prove himself as a Hunter in his own right. But on the way, he learns that there is more to becoming a Hunter than previously thought, and the challenges that he must face are considered the toughest in the world.",
      "poster_path": "/yWBcBIO9OrF3E85C5Arols6QNnG.jpg"
    },
    {
      "original_name": "ドラゴンボールゼット",
      "genre_ids": [
        16,
        35,
        10759,
        10765
      ],
      "name": "Dragon Ball Z",
      "popularity": 111.793,
      "origin_country": [
        "JP"
      ],
      "vote_count": 326,
      "first_air_date": "1989-04-26",
      "backdrop_path": "/ydf1CeiBLfdxiyNTpskM0802TKl.jpg",
      "original_language": "ja",
      "id": 12971,
      "vote_average": 8,
      "overview": "Five years have passed since the fight with Piccolo Jr. and Goku now has a son, Gohan. The peace is interrupted when an alien named Raditz arrives on Earth in a spacecraft and tracks down Goku, revealing to him that that they are members of a near-extinct warrior race called the Saiyans.",
      "poster_path": "/lCvOCn1Hq0ugBL6T8SyMoaCWNOc.jpg"
    },
    {
      "original_name": "犬とハサミは使いよう",
      "genre_ids": [
        16,
        35
      ],
      "name": "Dog & Scissors",
      "popularity": 96.389,
      "origin_country": [
        "JP"
      ],
      "vote_count": 13,
      "first_air_date": "2013-07-01",
      "backdrop_path": "/rQEpHHLg45QK4jBuIkI70fG62x3.jpg",
      "original_language": "ja",
      "id": 49464,
      "vote_average": 5.8,
      "overview": "A nonsense comical mystery. Harumi Kazuhito is a high school boy who loves books and is a fan of novelist Natsuno Kirihime. One day, he finds Kirihime writing at a cafe, about to be shot by a robber. He protects her from the attack but is killed instead. Through the supernatural power of a book-worm, he is reincarnated as a dachshund dog. Kazuhito (as a dog) writhes in a painful bookless life, when a sadistic woman carrying a pair of scissors offers him help. She is Kirihime herself.",
      "poster_path": "/6f7xiHXiqsSNByg9ZeNpOKPA5YE.jpg"
    },
    {
      "original_name": "ブリーチ",
      "genre_ids": [
        16,
        10759,
        10765
      ],
      "name": "Bleach",
      "popularity": 113.864,
      "origin_country": [
        "JP"
      ],
      "vote_count": 177,
      "first_air_date": "2004-10-05",
      "backdrop_path": "/rL5f718Nlnl10N4LnXFVxRO2XQz.jpg",
      "original_language": "ja",
      "id": 30984,
      "vote_average": 7.8,
      "overview": "For as long as he can remember, Ichigo Kurosaki has been able to see ghosts. But when he meets Rukia, a Soul Reaper who battles evil spirits known as Hollows, he finds his life is changed forever. Now, with a newfound wealth of spiritual energy, Ichigo discovers his true calling: to protect the living and the dead from evil.",
      "poster_path": "/jLKCX4hDP5DbcsPHpOSs6CMWoNe.jpg"
    },
    {
      "original_name": "φなる・あぷろーち",
      "id": 25917,
      "name": "Final Approach",
      "popularity": 71.213,
      "vote_count": 2,
      "vote_average": 9,
      "first_air_date": "2004-10-03",
      "poster_path": "/dItQItyZ3rOyfvMtUyWcXssqCsZ.jpg",
      "genre_ids": [
        16,
        35
      ],
      "original_language": "ja",
      "backdrop_path": "/sGdJzjqBaMLUwzOcsz9Qe6y3D5O.jpg",
      "overview": "Ryou Mizuhara is a normal high school student, living alone with his younger sister Akane. They were very happy together, at least until a mysterious girl crashes into their lives who introduces herself as Ryou's new fiancée.",
      "origin_country": [
        "JP"
      ]
    },
    {
      "original_name": "東京喰種トーキョーグール",
      "genre_ids": [
        16,
        80,
        18,
        10759
      ],
      "name": "Tokyo Ghoul",
      "popularity": 86.443,
      "origin_country": [
        "JP"
      ],
      "vote_count": 166,
      "first_air_date": "2014-07-04",
      "backdrop_path": "/nPPfk2PkrDkHN9egN8gdkJP1iVG.jpg",
      "original_language": "ja",
      "id": 61374,
      "vote_average": 7.3,
      "overview": "Ken Kaneki is a bookworm college student who meets a girl names Rize at a cafe he frequents. They're the same age and have the same interests, so they quickly become close. Little does Kaneki know that Rize is a ghoul - a kind of monster that lives by hunting and devouring human flesh. When part of her special organ - \"the red child\" - is transplanted into Kaneki, he becomes a ghoul himself, trapped in a warped world where humans are not the top of the food chain.",
      "poster_path": "/jUtFWNCJCflNTbvac4w6Qyzh43w.jpg"
    },
    {
      "original_name": "ワンパンマン",
      "genre_ids": [
        16,
        35,
        10759
      ],
      "name": "One-Punch Man",
      "popularity": 87.845,
      "origin_country": [
        "JP"
      ],
      "vote_count": 489,
      "first_air_date": "2015-10-04",
      "backdrop_path": "/s0w8JbuNNxL1YgaHeDWih12C3jG.jpg",
      "original_language": "ja",
      "id": 63926,
      "vote_average": 8,
      "overview": "Saitama is a hero who only became a hero for fun. After three years of “special” training, though, he’s become so strong that he’s practically invincible. In fact, he’s too strong—even his mightiest opponents are taken out with a single punch, and it turns out that being devastatingly powerful is actually kind of a bore. With his passion for being a hero lost along with his hair, yet still faced with new enemies every day, how much longer can he keep it going?",
      "poster_path": "/iE3s0lG5QVdEHOEZnoAxjmMtvne.jpg"
    },
    {
      "original_name": "ハイキュー!!",
      "id": 60863,
      "name": "Haikyu!!",
      "popularity": 75.229,
      "vote_count": 37,
      "vote_average": 8.1,
      "first_air_date": "2014-04-06",
      "poster_path": "/aXhi0b2MZWHekY402PyNjrj3LnR.jpg",
      "genre_ids": [
        16,
        35
      ],
      "original_language": "ja",
      "backdrop_path": "/eRstp0xZ2xaHkl6gxfuRfOKUhPz.jpg",
      "overview": "Shōyō Hinata began playing volleyball after seeing the \"small giants\" who played the sport when he was in elementary school. He suffers a crushing defeat in his first and last tournament in middle school at the hands of his rival Tobio Kageyama. So, Hinata joins Kurasuno High School's volleyball team, vowing revenge against Kageyama. However, Kageyama is also on Kurasuno's team. The former rivals form a legendary combo with Hinata's mobility and Kageyama's precision ball-handling. Together, they take on the local tournaments and vow to meet Kurasuno's fated rival school in the nationals.",
      "origin_country": [
        "JP"
      ]
    },
    {
      "original_name": "いぬやしき",
      "id": 73946,
      "name": "Inuyashiki: Last Hero",
      "popularity": 87.299,
      "vote_count": 15,
      "vote_average": 7.3,
      "first_air_date": "2017-10-12",
      "poster_path": "/agAamqnMFuELOh3S5KAkxNCwrIU.jpg",
      "genre_ids": [
        16,
        18,
        10765
      ],
      "original_language": "ja",
      "backdrop_path": "/gMnfHJ1SVagfE1RnIH1NKFwudEO.jpg",
      "overview": "Inuyashiki Ichirou is down on his luck. While only 58 years old, his geriatric looks often have him written off as a pathetic old man by the world around him and he’s constantly ignored and disrespected by his family despite all that he’s done to support them. On top of everything else, his doctor has revealed that he has cancer and it appears that he has little time left in this world. But just when it seems things couldn’t get any worse, a blinding light in the night sky strikes the earth where Ichirou stands. He later wakes up to find himself unscathed, but he soon starts to notice that there’s something… different about himself. However, it turns out that these strange, new changes are just what Ichirou needs to take a new lease on life and now it seems like there’s nothing to stop him from being a hero worthy of the respect that he never had before… unless, that is, there was someone else out there with these same changes…",
      "origin_country": [
        "JP"
      ]
    },
    {
      "original_name": "ジョジョの奇妙な冒険",
      "genre_ids": [
        28,
        12,
        16,
        14,
        27
      ],
      "name": "JoJo's Bizarre Adventure",
      "popularity": 89.468,
      "origin_country": [
        "JP"
      ],
      "vote_count": 63,
      "first_air_date": "2012-10-06",
      "backdrop_path": "/wzB24nH2iSfpZBB7Wa88Xe97K13.jpg",
      "original_language": "ja",
      "id": 45790,
      "vote_average": 7.2,
      "overview": "Beginning its tale in 19th century England, young aristocrat Jonathan Joestar finds himself locked in bitter rivalry with Dio Brando, a low-born boy who Jonathan’s father took under his wing after the death of Dio’s father. Discontent with his station in life, Dio’s fathomless drive to reign over all eventually leads him to seek the supernatural powers of an ancient Aztec stone mask in the Joestars' possession – an artifact that will forever change the destiny of Dio and Jonathan for generations to come. Fifty years later, in 1938 New York City, Jonathan’s grandson Joseph Joestar must take up his grandfather’s mission and master the abilities necessary to destroy the stone mask and its immensely powerful creators, the Pillar men, who threaten humanity's very existence.",
      "poster_path": "/ogAWwbh3frWtiTyyXrZaVFtqCgp.jpg"
    },
    {
      "original_name": "ブラッククローバー",
      "genre_ids": [
        16,
        35,
        10759
      ],
      "name": "Black Clover",
      "popularity": 98.616,
      "origin_country": [
        "JP"
      ],
      "vote_count": 101,
      "first_air_date": "2017-10-03",
      "backdrop_path": "/tQItgCaJVrXhe6CsJZ5qOKpOoRQ.jpg",
      "original_language": "ja",
      "id": 73223,
      "vote_average": 5.6,
      "overview": "Asta and Yuno are two orphans who want the same thing: to become the Wizard King. Locked in a friendly rivalry, they work hard towards their goal. While Yuno excels at magic, Asta has a problem uncommon in this world: he has no powers! But, on the day they receive their grimoires, they surprise everyone. To reach their goal, they’ll each find their own path to greatness—with or without magic.",
      "poster_path": "/kaMisKeOoTBPxPkbC3OW7Wgt6ON.jpg"
    },
    {
      "original_name": "ハイスクールD×D",
      "genre_ids": [
        16,
        35,
        10759,
        10765
      ],
      "name": "High School DxD",
      "popularity": 65.46,
      "origin_country": [
        "JP"
      ],
      "vote_count": 77,
      "first_air_date": "2012-01-06",
      "backdrop_path": "/u8QK47ttafn3iYox9o1dKyEEhcv.jpg",
      "original_language": "ja",
      "id": 45950,
      "vote_average": 7.1,
      "overview": "The story follows Issei Hyōdō, a dim-witted, lecherous second-year high school student who is killed by a girl on his first date ever. Issei is reincarnated as a devil, and from that day forward, he serves as an underling of Riasu, a high-level devil who is also the prettiest girl on Issei's campus.",
      "poster_path": "/rgDCONBvXScG4FQGqqXbf0Nc9Nk.jpg"
    },
    {
      "original_name": "オーバーロード",
      "genre_ids": [
        12,
        16,
        14
      ],
      "name": "Overlord",
      "popularity": 65.849,
      "origin_country": [
        "JP"
      ],
      "vote_count": 50,
      "first_air_date": "2015-07-07",
      "backdrop_path": "/yNb3WNyeMlRA776yixhs3b8TvWK.jpg",
      "original_language": "ja",
      "id": 64196,
      "vote_average": 7.5,
      "overview": "In the year 2138, virtual reality gaming is booming. Yggdrasil, a popular online game is quietly shut down one day. However, one player named Momonga decides to not log out. Momonga is then transformed into the image of a skeleton as \"the most powerful wizard.\" The world continues to change, with non-player characters (NPCs) beginning to feel emotion. Having no parents, friends, or place in society, this ordinary young man Momonga then strives to take over the new world the game has become.",
      "poster_path": "/1dVyeauPEJwa4Uv6K1ESuhi8Rb6.jpg"
    }
  ]
}